Data preparation
…
n_miss(db_proc)

[1] 129

prop_miss(db_proc)*100

[1] 0.3410533

miss_var_summary(db_proc)

# A tibble: 24 × 3
   variable          n_miss pct_miss
   <chr>              <int>    <num>
 1 perc_rich_parents     17    1.08 
 2 pref_talent           16    1.02 
 3 perc_contact          15    0.952
 4 pref_rich_parents     11    0.698
 5 perc_talent           10    0.635
 6 pref_effort           10    0.635
 7 pref_contact          10    0.635
 8 just_health            7    0.444
 9 school_effort          6    0.381
10 just_educ              6    0.381
# ℹ 14 more rows
…
